Treatment Progression Visualizations
…
# Mothership_Mean_CUXOS<-Mothership_Long %>%
#   group_by(Duration,TxDay) %>%
#   summarise(mean_CUXOS=mean(CUXOS,na.rm=TRUE))
# 
# Mothership_duration_CUXOS<-Mothership_Mean_CUXOS[1:83,]
#delete weird Na values and put NA for values
Mothership_duration_CUXOS[6:20,3] = NA
Mothership_duration_CUXOS[37:41,3] = NA
Mothership_duration_CUXOS[74:83,3] = NA
Mothership_duration_CUXOS<-Mothership_duration_CUXOS[(-21),]
Mothership_duration_CUXOS<-Mothership_duration_CUXOS[(-41),]
Mothership_duration_CUXOS<-Mothership_duration_CUXOS[(-61),]
Mothership_duration_CUXOS

## # A tibble: 80 × 3
## # Groups:   Duration [4]
##    Duration TxDay mean_CUXOS
##    <fct>    <dbl>      <dbl>
##  1 1-5          1      35.4 
##  2 1-5          2      27.8 
##  3 1-5          3      24.4 
##  4 1-5          4      20.6 
##  5 1-5          5       9.98
##  6 1-5          6      NA   
##  7 1-5          7      NA   
##  8 1-5          8      NA   
##  9 1-5          9      NA   
## 10 1-5         10      NA   
## # … with 70 more rows
…
Mothership_duration_CUDOS<-Mothership_Mean_CUDOS[1:83,]
#delete weird Na values and put NA for values
Mothership_duration_CUDOS[6:20,3] = NA
Mothership_duration_CUDOS[37:41,3] = NA
Mothership_duration_CUDOS[74:83,3] = NA
Mothership_duration_CUDOS<-Mothership_duration_CUDOS[(-21),]
Mothership_duration_CUDOS<-Mothership_duration_CUDOS[(-41),]
Mothership_duration_CUDOS<-Mothership_duration_CUDOS[(-61),]
Mothership_duration_CUDOS

## # A tibble: 80 × 3
## # Groups:   Duration [4]
##    Duration TxDay mean_CUDOS
##    <fct>    <dbl>      <dbl>
##  1 1-5          1       31.1
##  2 1-5          2       24.0
##  3 1-5          3       21.3
##  4 1-5          4       18.6
##  5 1-5          5       16.1
##  6 1-5          6       NA  
##  7 1-5          7       NA  
##  8 1-5          8       NA  
##  9 1-5          9       NA  
## 10 1-5         10       NA  
## # … with 70 more rows
…
#Overall race
Mothership_Mean_CUXOS_Race<-Mothership_Long_anx %>%
  group_by(TxDay,Race_1) %>%
  summarise(mean_CUXOS=mean(CUXOS,na.rm=TRUE))

Mothership_Mean_CUXOS_Race<-Mothership_Mean_CUXOS_Race[1:70,]
Mothership_Mean_CUXOS_Race

## # A tibble: 70 × 3
## # Groups:   TxDay [10]
##    TxDay Race_1    mean_CUXOS
##    <dbl> <fct>          <dbl>
##  1     1 Asian           31.2
##  2     1 Black           36.3
##  3     1 Hispanic        43.0
##  4     1 Other           39.7
##  5     1 Portugese       39.2
##  6     1 White           37.5
##  7     1 <NA>            40  
##  8     2 Asian           25.7
##  9     2 Black           29.7
## 10     2 Hispanic        36.8
## # … with 60 more rows
…
